\headcommand {\slideentry {0}{0}{1}{1/1}{}{0}}
\headcommand {\beamer@framepages {1}{1}}
\headcommand {\slideentry {0}{0}{2}{2/2}{}{0}}
\headcommand {\beamer@framepages {2}{2}}
\headcommand {\beamer@sectionpages {1}{2}}
\headcommand {\beamer@subsectionpages {1}{2}}
\headcommand {\sectionentry {1}{Recherche: Kafka Streams}{3}{Recherche: Kafka Streams}{0}}
\headcommand {\slideentry {1}{0}{1}{3/7}{}{0}}
\headcommand {\beamer@framepages {3}{7}}
\headcommand {\beamer@sectionpages {3}{7}}
\headcommand {\beamer@subsectionpages {3}{7}}
\headcommand {\sectionentry {2}{Komponenten}{8}{Komponenten}{0}}
\headcommand {\slideentry {2}{0}{1}{8/8}{}{0}}
\headcommand {\beamer@framepages {8}{8}}
\headcommand {\beamer@sectionpages {8}{8}}
\headcommand {\beamer@subsectionpages {8}{8}}
\headcommand {\sectionentry {3}{Umsetzung}{9}{Umsetzung}{0}}
\headcommand {\slideentry {3}{0}{1}{9/14}{}{0}}
\headcommand {\beamer@framepages {9}{14}}
\headcommand {\beamer@sectionpages {9}{14}}
\headcommand {\beamer@subsectionpages {9}{14}}
\headcommand {\sectionentry {4}{Hindernisse}{15}{Hindernisse}{0}}
\headcommand {\slideentry {4}{0}{1}{15/18}{}{0}}
\headcommand {\beamer@framepages {15}{18}}
\headcommand {\beamer@sectionpages {15}{18}}
\headcommand {\beamer@subsectionpages {15}{18}}
\headcommand {\sectionentry {5}{Fortsetzung}{19}{Fortsetzung}{0}}
\headcommand {\slideentry {5}{0}{1}{19/19}{}{0}}
\headcommand {\beamer@framepages {19}{19}}
\headcommand {\beamer@partpages {1}{19}}
\headcommand {\beamer@subsectionpages {19}{19}}
\headcommand {\beamer@sectionpages {19}{19}}
\headcommand {\beamer@documentpages {19}}
\headcommand {\gdef \inserttotalframenumber {7}}
