@startuml class-faculty

!include ../templates/format-class.puml

' skinparam BackgroundColor Grey

' skinparam dpi 65
' skinparam dpi 60
' skinparam dpi 55
skinparam dpi 50

skinparam ArrowFontColor FireBrick

' left to right direction

hide empty members
' remove cl_entity
remove cl_user
remove cl_userType
remove cl_project
remove cl_projectDocument
remove cl_projectStatus

!include ./class/faculty.puml

@enduml
