@startuml use-case-studentAndLecturer-en

!include ../templates/format.puml

' skinparam dpi 70
' skinparam dpi 65
' skinparam dpi 60

skinparam ArrowColor FireBrick
skinparam ArrowFontColor FireBrick

left to right direction

actor "Student" as student
actor "Lecturer" as lecturer

package "Project/Thesis" as r {
	usecase "Create application" as applicationCreation
	usecase "View application" as applicationView
	usecase "Deadline extension" as applicationDeadlineExtension
	usecase "Add documents" as applicationAddDocs

	usecase "Update titel" as applicationUpdateTitle
	usecase "Update deadline" as applicationUpdateDeadline
	usecase "View application" as applicationView
	usecase "View application list" as applicationViewList
	usecase "Update grading" as applicationUpdateGrade
	usecase "Forward" as applicationStatusGraded
}

student --- (applicationCreation)
student -- (applicationView) : own\napplications
student -- (applicationDeadlineExtension) : apply
student -- (applicationAddDocs)

(applicationCreation) --- lecturer : Accept/\nReject
(applicationUpdateTitle) -- lecturer
(applicationDeadlineExtension) -- lecturer : Accept/\nReject
(applicationView) -- lecturer : supervised\napplications
(applicationViewList) -- lecturer
(applicationUpdateGrade) -- lecturer
(applicationStatusGraded) -- lecturer

note left of applicationCreation
	*  Titel
	*  Supervising tutor (first)
	*  (Second supervising tutor)
	*  Signature
end note

note right of applicationCreation
	*  Signature
end note

@enduml
