@startuml use-case-student-de

!include ../templates/format-use-case.puml

' skinparam dpi 70
' skinparam dpi 65
' skinparam dpi 60

actor "Student" as student

package "Projekt/Abschlussarbeit" as r {
	usecase "Antrag anlegen" as stu_applicationCreate
	usecase "Antrag anzeigen" as stu_applicationView
	' usecase "Anträge anzeigen" as stu_applicationViewList
	usecase "Fristverlängerung beantragen" as stu_applicationRequestDeadlineExtension
	usecase "Dokumente hinterlegen" as stu_applicationAddDocs
}

student -- (stu_applicationCreate)
student -- (stu_applicationView)
' student -- (stu_applicationViewList)
student -- (stu_applicationRequestDeadlineExtension)
student -- (stu_applicationAddDocs)

note right of stu_applicationCreate
	*  Titel
	*  Betreuer/Erstgutachter
	*  (Zweitgutachter)
	*  Unterschrift
end note

note "eigene Anträge" as stu_application_note

stu_applicationView .. stu_application_note
' stu_applicationViewList .. stu_application_note
stu_applicationRequestDeadlineExtension .. stu_application_note
stu_applicationAddDocs .. stu_application_note

@enduml
